Rethinking - Chapter 14
…
Code

fit$summary()

# A tibble: 50 × 10
   variable         mean   median      sd    mad      q5     q95  rhat ess_bulk
   <chr>           <dbl>    <dbl>   <dbl>  <dbl>   <dbl>   <dbl> <dbl>    <dbl>
 1 lp__         -46.5    -47.3    16.1    19.1   -71.5   -21.2    1.04     96.6
 2 mu_ab[1]       0.372    0.367   0.0990  0.106   0.228   0.538  1.04    134. 
 3 mu_ab[2]       0.0714   0.0754  0.162   0.147  -0.206   0.347  1.03    198. 
 4 ab_cafe[1,1]   0.400    0.388   0.163   0.141   0.161   0.693  1.01    348. 
 5 ab_cafe[2,1]   0.395    0.381   0.156   0.136   0.174   0.671  1.02    317. 
 6 ab_cafe[3,1]   0.358    0.350   0.154   0.134   0.123   0.613  1.02    280. 
 7 ab_cafe[4,1]   0.359    0.350   0.150   0.136   0.135   0.612  1.03    242. 
 8 ab_cafe[5,1]   0.410    0.390   0.182   0.148   0.151   0.745  1.01    389. 
 9 ab_cafe[6,1]   0.410    0.392   0.163   0.142   0.191   0.716  1.02    268. 
10 ab_cafe[7,1]   0.370    0.363   0.161   0.135   0.115   0.638  1.00    603. 
# ℹ 40 more rows
# ℹ 1 more variable: ess_tail <dbl>
