Rethinking - Chapter 11
…
Code

library(tidyverse)
d %>% group_by(treatment, actor, side, cond) %>% summarise(left_pulls=sum(pulled_left), cnt=n())

`summarise()` has grouped output by 'treatment', 'actor', 'side'. You can
override using the `.groups` argument.

# A tibble: 28 × 6
# Groups:   treatment, actor, side [28]
   treatment actor  side  cond left_pulls   cnt
       <dbl> <int> <dbl> <dbl>      <int> <int>
 1         1     1     1     1          6    18
 2         1     2     1     1         18    18
 3         1     3     1     1          5    18
 4         1     4     1     1          6    18
 5         1     5     1     1          6    18
 6         1     6     1     1         14    18
 7         1     7     1     1         14    18
 8         2     1     2     1          9    18
 9         2     2     2     1         18    18
10         2     3     2     1         11    18
# ℹ 18 more rows
…
